%!PS-Adobe-3.0 EPSF-3.0
%%Creator: cairo 1.14.8 (http://cairographics.org)
%%CreationDate: Sun Feb 17 15:28:59 2019
%%Pages: 1
%%DocumentData: Clean7Bit
%%LanguageLevel: 2
%%BoundingBox: 0 -1 150 120
%%EndComments
%%BeginProlog
save
50 dict begin
/q { gsave } bind def
/Q { grestore } bind def
/cm { 6 array astore concat } bind def
/w { setlinewidth } bind def
/J { setlinecap } bind def
/j { setlinejoin } bind def
/M { setmiterlimit } bind def
/d { setdash } bind def
/m { moveto } bind def
/l { lineto } bind def
/c { curveto } bind def
/h { closepath } bind def
/re { exch dup neg 3 1 roll 5 3 roll moveto 0 rlineto
      0 exch rlineto 0 rlineto closepath } bind def
/S { stroke } bind def
/f { fill } bind def
/f* { eofill } bind def
/n { newpath } bind def
/W { clip } bind def
/W* { eoclip } bind def
/BT { } bind def
/ET { } bind def
/pdfmark where { pop globaldict /?pdfmark /exec load put }
    { globaldict begin /?pdfmark /pop load def /pdfmark
    /cleartomark load def end } ifelse
/BDC { mark 3 1 roll /BDC pdfmark } bind def
/EMC { mark /EMC pdfmark } bind def
/cairo_store_point { /cairo_point_y exch def /cairo_point_x exch def } def
/Tj { show currentpoint cairo_store_point } bind def
/TJ {
  {
    dup
    type /stringtype eq
    { show } { -0.001 mul 0 cairo_font_matrix dtransform rmoveto } ifelse
  } forall
  currentpoint cairo_store_point
} bind def
/cairo_selectfont { cairo_font_matrix aload pop pop pop 0 0 6 array astore
    cairo_font exch selectfont cairo_point_x cairo_point_y moveto } bind def
/Tf { pop /cairo_font exch def /cairo_font_matrix where
      { pop cairo_selectfont } if } bind def
/Td { matrix translate cairo_font_matrix matrix concatmatrix dup
      /cairo_font_matrix exch def dup 4 get exch 5 get cairo_store_point
      /cairo_font where { pop cairo_selectfont } if } bind def
/Tm { 2 copy 8 2 roll 6 array astore /cairo_font_matrix exch def
      cairo_store_point /cairo_font where { pop cairo_selectfont } if } bind def
/g { setgray } bind def
/rg { setrgbcolor } bind def
/d1 { setcachedevice } bind def
%%EndProlog
%%BeginSetup
%%EndSetup
%%Page: 1 1
%%BeginPageSetup
%%PageBoundingBox: 0 -1 150 120
%%EndPageSetup
q 0 -1 150 121 rectclip q
0.921569 0.733333 0.458824 rg
130.961 105.11 m 138.375 99.489 143.934 92.18 146.84 83.446 c 156.668 53.918
 132.465 19.278 92.781 6.071 c 53.098 -7.136 12.965 6.094 3.137 35.621 c
 0.598 43.254 0.332 51.231 2.02 59.086 c 52.562 38.868 105.402 7.883 130.961
 105.11 c h
130.961 105.11 m f*
0 g
1.899455 w
2 J
0 j
[] 0.0 d
4 M q 1 0 0 -1 0 119.062859 cm
130.961 13.953 m 138.375 19.574 143.934 26.883 146.84 35.617 c 156.668 
65.145 132.465 99.785 92.781 112.992 c 53.098 126.199 12.965 112.969 3.137
 83.441 c 0.598 75.809 0.332 67.832 2.02 59.977 c 52.562 80.195 105.402 
111.18 130.961 13.953 c h
130.961 13.953 m S Q
0.980392 0.32549 0.592157 rg
88.164 118.114 m 78.184 118.129 67.676 116.485 57.195 112.996 c 27.773 
103.203 6.859 81.625 2.039 59.243 c 2.922 45.094 12.527 40.09 19.73 33.524
 c 24.164 29.309 21.863 11.692 28.305 12.028 c 35.922 12.426 24.328 29.211
 30.629 25.567 c 38.723 20.918 47.762 18.149 57.332 17.106 c 61.145 17.211
 62.188 7.743 68.098 7.914 c 72.684 8.047 70.824 16.453 74.312 17.012 c 
81.852 17.723 86.441 20.75 95.254 30.422 c 101.555 32.727 108.797 8.004 
111.891 23.243 c 113.355 30.461 124.184 22.856 120.719 35.684 c 116.996 
45.18 136.613 55.301 138.125 69.52 c 138.258 72.883 139.648 61.559 144.523
 63.993 c 149.398 66.422 139.723 78.418 139.59 84.914 c 141.426 95.727 136.137
 100.711 131.051 105.067 c 119.961 113.453 104.801 118.086 88.164 118.114
 c h
90.27 67.707 m 92.766 67.684 95.215 67.496 97.566 67.168 c 85.711 48.957
 57.852 50.965 53.141 52.383 c 61.934 63.403 76.797 67.852 90.27 67.707 
c h
90.27 67.707 m f
0 g
1.899022 w
1 J
1 j
q 1 0 0 -1 0 119.062859 cm
88.164 0.949 m 78.184 0.934 67.676 2.578 57.195 6.066 c 27.773 15.859 6.859
 37.438 2.039 59.82 c 2.922 73.969 12.527 78.973 19.73 85.539 c 24.164 89.754
 21.863 107.371 28.305 107.035 c 35.922 106.637 24.328 89.852 30.629 93.496
 c 38.723 98.145 47.762 100.914 57.332 101.957 c 61.145 101.852 62.188 111.32
 68.098 111.148 c 72.684 111.016 70.824 102.609 74.312 102.051 c 81.852 
101.34 86.441 98.312 95.254 88.641 c 101.555 86.336 108.797 111.059 111.891
 95.82 c 113.355 88.602 124.184 96.207 120.719 83.379 c 116.996 73.883 136.613
 63.762 138.125 49.543 c 138.258 46.18 139.648 57.504 144.523 55.07 c 149.398
 52.641 139.723 40.645 139.59 34.148 c 141.426 23.336 136.137 18.352 131.051
 13.996 c 119.961 5.609 104.801 0.977 88.164 0.949 c h
90.27 51.355 m 92.766 51.379 95.215 51.566 97.566 51.895 c 85.711 70.105
 57.852 68.098 53.141 66.68 c 61.934 55.66 76.797 51.211 90.27 51.355 c 
h
90.27 51.355 m S Q
0.890196 0.623529 0.235294 rg
52.938 64.5 m 55.113 66.297 55.703 58.926 59.758 61.629 c 62.121 63.2 57.555
 68.161 59.633 69.493 c 62.746 71.278 66.723 73.055 71.793 74.727 c 72.594
 74.989 73.375 75.227 74.133 75.446 c 76.68 76.028 77.438 70.711 79.66 70.754
 c 82.5 70.805 80.758 77.078 83.961 77.161 c 94.25 79.09 101.082 72.586 
97.648 67.254 c 67.918 71.43 52.781 52.653 53.164 52.411 c 46.336 54.078
 48.57 61.805 52.938 64.5 c h
52.938 64.5 m f
0 g
q 1 0 0 -1 0 119.062859 cm
52.938 54.562 m 55.113 52.766 55.703 60.137 59.758 57.434 c 62.121 55.863
 57.555 50.902 59.633 49.57 c 62.746 47.785 66.723 46.008 71.793 44.336 
c 72.594 44.074 73.375 43.836 74.133 43.617 c 76.68 43.035 77.438 48.352
 79.66 48.309 c 82.5 48.258 80.758 41.984 83.961 41.902 c 94.25 39.973 101.082
 46.477 97.648 51.809 c 67.918 47.633 52.781 66.41 53.164 66.652 c 46.336
 64.984 48.57 57.258 52.938 54.562 c h
52.938 54.562 m S Q
1 0.545098 0.729412 rg
28.555 51.317 m 25.113 52.348 19.586 83.059 62.953 98.657 c 76.898 103.672
 101.32 103.25 112.625 91.985 c 110.715 98.524 91.664 109.743 63.641 104.621
 c 23.078 97.207 9.426 59.664 28.555 51.317 c h
28.555 51.317 m f
0 g
66.477 107.914 m 66.305 107.891 l 66.223 107.879 l 66.145 107.875 l 66.07
 107.868 l 65.996 107.864 l 65.93 107.868 l 65.867 107.868 l 65.805 107.879
 l 65.746 107.887 l 65.688 107.907 l 65.633 107.926 l 65.586 107.953 l 65.531
 107.981 l 65.488 108.016 l 65.445 108.063 l 65.398 108.11 l 65.355 108.164
 l 65.344 108.196 l 65.32 108.235 l 65.301 108.262 l 65.285 108.301 l 65.266
 108.34 l 65.227 108.426 l 65.211 108.469 l 65.199 108.516 l 65.18 108.563
 l 65.164 108.618 l 65.148 108.668 l 65.133 108.723 l 65.117 108.782 l 65.105
 108.848 l 65.09 108.907 l 65.07 108.977 l 65.062 109.039 l 65.047 109.11
 l 65.031 109.184 l 65.016 109.262 l 65.004 109.344 l 64.988 109.422 l 64.977
 109.504 l 64.965 109.594 l 64.945 109.684 l 64.934 109.778 l 64.918 109.875
 l 64.832 110.528 l 63.992 110.414 l 66.508 91.887 l 67.348 92.004 l 67.258
 92.657 l 66.977 94.743 67.266 94.84 68.234 94.973 c 82.449 96.903 l 83.43
 97.039 83.73 97.016 84.016 94.934 c 84.105 94.278 l 84.949 94.395 l 84.73
 95.336 84.457 97.344 84.32 98.371 c 84.18 99.403 83.902 101.434 83.859 
102.395 c 83.016 102.282 l 83.105 101.629 l 83.391 99.543 83.102 99.446 
82.125 99.309 c 66.641 97.207 l 65.539 105.325 l 81.02 107.426 l 82 107.559
 82.301 107.539 82.586 105.457 c 82.676 104.801 l 83.52 104.918 l 83.301
 105.86 83.027 107.868 82.891 108.895 c 82.75 109.926 82.473 111.953 82.43
 112.918 c 81.586 112.805 l 81.676 112.153 l 81.961 110.067 81.672 109.977
 80.691 109.844 c h
66.477 107.914 m f*
87.715 30.453 m 87.863 30.485 l 87.934 30.5 l 88.004 30.508 l 88.07 30.516
 l 88.133 30.524 l 88.191 30.528 l 88.246 30.528 l 88.355 30.52 l 88.406
 30.504 l 88.453 30.493 l 88.5 30.469 l 88.547 30.45 l 88.586 30.418 l 88.629
 30.383 l 88.672 30.344 l 88.711 30.297 l 88.727 30.27 l 88.746 30.239 l
 88.766 30.215 l 88.801 30.145 l 88.84 30.075 l 88.855 30.039 l 88.867 29.996
 l 88.887 29.957 l 88.906 29.911 l 88.918 29.864 l 88.938 29.821 l 88.953
 29.77 l 88.969 29.711 l 88.984 29.661 l 89.008 29.602 l 89.02 29.543 l 
89.035 29.485 l 89.055 29.418 l 89.07 29.352 l 89.086 29.282 l 89.105 29.211
 l 89.121 29.141 l 89.133 29.067 l 89.156 28.985 l 89.172 28.907 l 89.188
 28.821 l 89.301 28.254 l 90.031 28.399 l 86.801 44.512 l 86.07 44.364 l
 86.184 43.797 l 86.547 41.985 86.297 41.879 85.457 41.711 c 73.094 39.231
 l 72.242 39.059 71.977 39.059 71.609 40.871 c 71.496 41.442 l 70.762 41.293
 l 71.004 40.481 71.355 38.735 71.535 37.84 c 71.715 36.946 72.07 35.176
 72.16 34.332 c 72.895 34.481 l 72.777 35.051 l 72.414 36.864 72.66 36.965
 73.512 37.137 c 86.977 39.84 l 88.395 32.778 l 74.93 30.078 l 74.078 29.907
 73.812 29.907 73.445 31.719 c 73.332 32.289 l 72.598 32.141 l 72.84 31.328
 73.191 29.582 73.371 28.688 c 73.551 27.793 73.906 26.024 73.996 25.18 
c 74.73 25.328 l 74.613 25.899 l 74.25 27.711 74.5 27.805 75.352 27.977 
c h
87.715 30.453 m f*
27.516 71.707 m 27.562 71.77 l 27.609 71.828 l 27.652 71.887 l 27.695 71.934
 l 27.738 71.985 l 27.777 72.032 l 27.82 72.071 l 27.859 72.106 l 27.902
 72.141 l 27.945 72.172 l 27.992 72.196 l 28.035 72.215 l 28.129 72.246 
l 28.18 72.25 l 28.293 72.25 l 28.352 72.243 l 28.379 72.231 l 28.414 72.223
 l 28.445 72.219 l 28.477 72.203 l 28.512 72.192 l 28.551 72.18 l 28.586
 72.164 l 28.625 72.149 l 28.66 72.125 l 28.699 72.11 l 28.785 72.063 l 
28.828 72.043 l 28.871 72.016 l 28.922 71.985 l 28.965 71.957 l 29.02 71.926
 l 29.066 71.895 l 29.117 71.86 l 29.227 71.789 l 29.285 71.746 l 29.344
 71.707 l 29.402 71.664 l 29.461 71.618 l 29.527 71.575 l 29.66 71.473 l
 30.113 71.133 l 30.551 71.715 l 17.691 81.387 l 17.254 80.805 l 17.707 
80.465 l 19.156 79.375 19.039 79.137 18.535 78.465 c 11.113 68.598 l 10.602
 67.914 10.406 67.743 8.957 68.832 c 8.504 69.172 l 8.066 68.586 l 8.773
 68.149 10.168 67.102 10.879 66.563 c 11.594 66.028 13.004 64.965 13.621
 64.411 c 14.062 64.996 l 13.605 65.336 l 12.16 66.426 12.273 66.661 12.785
 67.34 c 20.867 78.086 l 26.5 73.852 l 18.418 63.102 l 17.906 62.422 17.711
 62.25 16.266 63.336 c 15.812 63.68 l 15.371 63.094 l 16.078 62.657 17.473
 61.606 18.188 61.071 c 18.898 60.532 20.309 59.473 20.926 58.914 c 21.367
 59.5 l 20.914 59.84 l 19.465 60.93 19.586 61.161 20.098 61.84 c h
27.516 71.707 m f*
25.969 51.391 m 25.992 51.383 l 26.012 51.375 l 26.027 51.368 l 26.047 
51.36 l 26.07 51.356 l 26.09 51.348 l 26.105 51.344 l 26.121 51.336 l 26.141
 51.328 l 26.156 51.328 l 26.191 51.317 l 26.215 51.305 l 26.246 51.305 
l 26.273 51.293 l 26.301 51.286 l 26.324 51.282 l 26.348 51.282 l 26.371
 51.278 l 26.395 51.278 l 26.41 51.27 l 26.465 51.27 l 26.477 51.274 l 26.492
 51.27 l 26.508 51.27 l 26.516 51.274 l 26.527 51.278 l 26.551 51.278 l 
26.555 51.282 l 26.57 51.286 l 26.574 51.289 l 26.582 51.293 l 26.59 51.293
 l 26.594 51.297 l 26.602 51.301 l 26.766 51.364 26.875 51.555 26.969 51.7
 c 33.973 62.082 l 36.887 54.606 l 39.02 49.129 38.488 47.051 33.633 44.371
 c 33.945 43.571 l 40.887 47.317 l 33.879 65.297 l 33.578 66.071 33.555 
66.129 32.801 65.836 c 24.219 53.203 l 12.434 57.493 l 11.957 57.68 11.891
 57.653 11.793 57.618 c 11.438 57.477 11.562 57.153 11.75 56.672 c 18.762
 38.692 l 26.758 40.77 l 26.449 41.571 l 20.809 40.051 19.07 41.914 17.09
 46.993 c 13.605 55.934 l h
25.969 51.391 m f*
120.199 74.543 m 120.176 74.555 l 120.148 74.582 l 120.133 74.594 l 120.109
 74.61 l 120.098 74.621 l 120.082 74.629 l 120.066 74.641 l 120.051 74.657
 l 120.039 74.661 l 120.008 74.68 l 119.988 74.7 l 119.957 74.715 l 119.938
 74.735 l 119.891 74.758 l 119.871 74.766 l 119.848 74.778 l 119.828 74.786
 l 119.812 74.797 l 119.797 74.805 l 119.777 74.809 l 119.762 74.817 l 119.75
 74.817 l 119.734 74.821 l 119.719 74.828 l 119.699 74.828 l 119.684 74.832
 l 119.637 74.832 l 119.629 74.828 l 119.621 74.828 l 119.445 74.821 119.277
 74.672 119.145 74.567 c 109.172 66.883 l 108.766 74.942 l 108.465 80.84
 109.633 82.657 115.117 83.668 c 115.07 84.532 l 107.262 83.161 l 108.238
 63.789 l 108.281 62.957 108.285 62.891 109.098 62.934 c 121.289 72.258 
l 131.168 64.426 l 131.562 64.098 131.633 64.102 131.738 64.106 c 132.125
 64.125 132.105 64.477 132.078 64.993 c 131.102 84.364 l 122.812 84.922 
l 122.855 84.063 l 128.719 83.719 129.785 81.391 130.059 75.918 c 130.547
 66.286 l h
120.199 74.543 m f*
49.141 86.621 m 49.109 86.317 l 49.086 86.004 l 49.02 85.368 l 48.953 84.715
 l 48.875 84.051 l 48.797 83.391 l 48.723 82.735 l 48.605 81.774 l 48.57
 81.465 l 48.531 81.168 l 48.5 80.871 l 48.465 80.59 l 48.438 80.317 l 48.41
 80.051 l 48.379 79.797 l 48.359 79.559 l 48.336 79.336 l 48.316 79.125 
l 48.301 78.926 l 48.289 78.746 l 48.285 78.586 l 48.277 78.442 l 48.281
 78.313 l 48.285 78.207 l 48.297 78.129 l 48.422 77.364 48.68 77.239 49.371
 76.899 c 49.93 76.625 l 50.199 76.524 50.301 76.664 50.336 76.743 c 50.371
 76.813 50.348 76.895 50.324 77.039 c 50.211 77.442 50.238 77.899 50.316
 78.496 c 52.254 95.575 l 52.441 97.321 51.227 98.34 50.031 98.926 c 49.906
 98.989 49.57 99.153 49.434 98.871 c 49.328 98.661 49.512 98.512 49.539 
98.5 c 50.301 97.934 50.402 97.7 50.188 95.649 c 49.25 87.489 l 38.762 83.957
 l 38.312 83.801 38.078 83.719 37.918 83.391 c 37.703 82.957 37.914 82.477
 38.324 82.278 c 38.734 82.075 39.094 82.246 39.43 82.399 c h
49.141 86.621 m f*
41.219 65.727 m 41.062 65.883 l 40.902 66.039 l 40.578 66.371 l 40.242 
66.707 l 39.578 67.403 l 39.246 67.746 l 38.926 68.086 l 38.762 68.254 l
 38.609 68.414 l 38.461 68.575 l 38.309 68.731 l 38.168 68.879 l 38.027 
69.02 l 37.895 69.157 l 37.766 69.289 l 37.418 69.637 l 37.316 69.735 l 
37.223 69.825 l 37.133 69.903 l 37.055 69.973 l 36.984 70.028 l 36.922 70.075
 l 36.871 70.106 l 36.387 70.387 36.199 70.301 35.691 70.071 c 35.281 69.887
 l 35.102 69.782 35.137 69.661 35.16 69.606 c 35.184 69.551 35.242 69.528
 35.332 69.473 c 35.609 69.356 35.852 69.129 36.148 68.809 c 44.781 59.871
 l 45.668 58.961 46.793 59.172 47.672 59.567 c 47.766 59.61 48.012 59.719
 47.918 59.926 c 47.848 60.082 47.68 60.047 47.664 60.039 c 46.996 59.871
 46.816 59.926 45.773 60.989 c 41.656 65.266 l 44.512 72.739 l 44.633 73.063
 44.691 73.231 44.582 73.469 c 44.438 73.789 44.074 73.895 43.773 73.758
 c 43.473 73.621 43.406 73.344 43.336 73.086 c h
41.219 65.727 m f*
108.09 40.891 m 108.418 41.043 l 108.754 41.203 l 109.445 41.516 l 110.156
 41.836 l 110.883 42.149 l 111.609 42.465 l 112.328 42.778 l 113.035 43.078
 l 113.383 43.231 l 113.719 43.375 l 114.051 43.516 l 114.371 43.661 l 114.684
 43.789 l 114.98 43.926 l 115.27 44.055 l 115.547 44.176 l 115.801 44.293
 l 116.047 44.407 l 116.277 44.512 l 116.488 44.614 l 116.676 44.707 l 116.848
 44.801 l 117 44.879 l 117.129 44.957 l 117.234 45.024 l 117.312 45.086 
l 118.02 45.668 117.996 46.008 117.934 46.922 c 117.883 47.657 l 117.824
 47.993 117.617 48.012 117.516 48.004 c 117.422 48 117.352 47.926 117.219
 47.817 c 116.875 47.457 116.391 47.215 115.73 46.938 c 97.043 38.754 l 
95.137 37.911 94.816 36.051 94.926 34.477 c 94.938 34.309 94.965 33.868 
95.336 33.895 c 95.613 33.914 95.656 34.188 95.656 34.223 c 95.781 35.344
 95.961 35.586 98.195 36.59 c 107.133 40.485 l 117.008 31.825 l 117.434 
31.453 117.656 31.266 118.09 31.293 c 118.664 31.332 119.031 31.836 118.992
 32.375 c 118.957 32.914 118.562 33.18 118.207 33.434 c h
108.09 40.891 m f*
89.812 56.016 m 89.77 55.981 l 89.738 55.946 l 89.703 55.922 l 89.676 55.891
 l 89.59 55.805 l 89.566 55.778 l 89.543 55.746 l 89.523 55.723 l 89.504
 55.696 l 89.488 55.672 l 89.473 55.645 l 89.461 55.625 l 89.445 55.598 
l 89.438 55.575 l 89.426 55.555 l 89.422 55.532 l 89.414 55.512 l 89.41 
55.493 l 89.406 55.469 l 89.402 55.45 l 89.406 55.43 l 89.402 55.411 l 89.402
 55.395 l 89.41 55.379 l 89.41 55.364 l 89.418 55.348 l 89.422 55.336 l 
89.426 55.321 l 89.438 55.305 l 89.449 55.293 l 89.508 55.219 89.715 55.11
 90.152 55.438 c 91.734 56.602 93.645 56.024 94.613 54.832 c 95.516 53.727
 95.594 52.328 95.641 50.77 c 95.66 49.168 95.703 47.586 96.703 46.36 c 
98.172 44.559 100.82 44.606 102.543 46.012 c 103.094 46.457 102.914 46.719
 102.902 46.739 c 102.738 46.938 102.324 46.696 102.262 46.649 c 100.395
 45.278 98.535 46.203 97.727 47.192 c 96.832 48.293 96.758 49.7 96.711 51.254
 c 96.688 52.852 96.652 54.442 95.645 55.676 c 94.184 57.469 91.531 57.418
 89.812 56.016 c h
89.812 56.016 m f*
105.785 49.758 m 105.832 49.703 l 105.879 49.645 l 105.926 49.594 l 105.953
 49.563 l 105.98 49.536 l 106 49.512 l 106.051 49.461 l 106.082 49.434 l
 106.109 49.414 l 106.133 49.395 l 106.16 49.371 l 106.191 49.352 l 106.219
 49.34 l 106.25 49.328 l 106.277 49.313 l 106.305 49.301 l 106.336 49.293
 l 106.398 49.286 l 106.461 49.286 l 106.473 49.289 l 106.492 49.293 l 106.504
 49.297 l 106.523 49.301 l 106.535 49.305 l 106.555 49.313 l 106.586 49.328
 l 106.605 49.336 l 106.617 49.348 l 106.637 49.356 l 106.652 49.368 l 106.672
 49.379 l 106.688 49.391 l 107.055 49.692 106.781 50.028 106.531 50.336 
c 97.594 61.293 l 97.34 61.606 97.07 61.934 96.703 61.633 c 96.344 61.34
 96.625 60.993 96.883 60.676 c h
105.785 49.758 m f*
61.855 35.895 m 61.867 35.957 l 61.871 36.016 l 61.879 36.067 l 61.883 
36.121 l 61.887 36.172 l 61.891 36.219 l 61.891 36.395 l 61.887 36.434 l
 61.879 36.469 l 61.875 36.504 l 61.867 36.536 l 61.863 36.575 l 61.848 
36.598 l 61.844 36.629 l 61.828 36.657 l 61.82 36.68 l 61.809 36.7 l 61.793
 36.727 l 61.781 36.746 l 61.766 36.762 l 61.75 36.782 l 61.734 36.797 l
 61.719 36.805 l 61.703 36.821 l 61.656 36.844 l 61.633 36.848 l 61.617 
36.852 l 61.5 36.871 61.219 36.809 61.082 36.157 c 60.547 33.809 58.316 
32.821 56.465 33.145 c 54.746 33.446 53.551 34.676 52.262 36.082 c 50.961
 37.551 49.652 38.981 47.746 39.313 c 44.945 39.805 42.531 37.641 42.062
 34.961 c 41.914 34.106 42.285 34.004 42.312 34 c 42.621 33.946 42.816 34.504
 42.832 34.594 c 43.465 37.36 45.926 37.993 47.465 37.723 c 49.18 37.422
 50.371 36.18 51.656 34.778 c 52.957 33.317 54.266 31.875 56.184 31.539 
c 58.973 31.051 61.387 33.219 61.855 35.895 c h
61.855 35.895 m f*
42.062 28.895 m 41.977 28.911 l 41.883 28.926 l 41.797 28.938 l 41.75 28.946
 l 41.703 28.946 l 41.664 28.953 l 41.617 28.957 l 41.531 28.957 l 41.488
 28.953 l 41.445 28.957 l 41.406 28.953 l 41.363 28.946 l 41.324 28.938 
l 41.289 28.926 l 41.25 28.914 l 41.215 28.903 l 41.18 28.883 l 41.148 28.868
 l 41.113 28.844 l 41.086 28.817 l 41.074 28.809 l 41.059 28.793 l 41.051
 28.778 l 41.035 28.762 l 41.027 28.746 l 41.012 28.731 l 40.992 28.692 
l 40.984 28.672 l 40.965 28.633 l 40.961 28.61 l 40.953 28.59 l 40.945 28.567
 l 40.938 28.539 l 40.934 28.516 l 40.832 27.942 41.352 27.852 41.836 27.766
 c 58.879 24.778 l 59.367 24.692 59.875 24.602 59.977 25.176 c 60.074 25.739
 59.535 25.832 59.043 25.918 c h
42.062 28.895 m f*
101.246 85.672 m 101.262 85.719 l 101.273 85.762 l 101.289 85.801 l 101.305
 85.879 l 101.32 85.95 l 101.328 85.981 l 101.332 86.02 l 101.34 86.051 
l 101.34 86.188 l 101.332 86.207 l 101.332 86.235 l 101.324 86.254 l 101.324
 86.274 l 101.301 86.332 l 101.293 86.344 l 101.281 86.36 l 101.273 86.375
 l 101.262 86.383 l 101.254 86.395 l 101.242 86.403 l 101.23 86.414 l 101.219
 86.422 l 101.203 86.43 l 101.188 86.434 l 101.105 86.461 100.883 86.453
 100.691 85.973 c 99.977 84.258 98.148 83.793 96.781 84.286 c 95.512 84.739
 94.766 85.836 93.969 87.075 c 93.168 88.364 92.359 89.621 90.953 90.129
 c 88.883 90.868 86.766 89.539 86.055 87.559 c 85.828 86.93 86.098 86.805
 86.121 86.797 c 86.348 86.715 86.566 87.114 86.59 87.18 c 87.438 89.203
 89.395 89.36 90.531 88.953 c 91.797 88.496 92.539 87.395 93.336 86.161 
c 94.133 84.875 94.941 83.61 96.355 83.102 c 98.418 82.364 100.539 83.696
 101.246 85.672 c h
101.246 85.672 m f*
85.258 82.942 m 85.195 82.965 l 85.125 82.989 l 85.062 83.008 l 85.027 
83.02 l 84.992 83.028 l 84.965 83.039 l 84.926 83.047 l 84.898 83.051 l 
84.859 83.059 l 84.828 83.063 l 84.797 83.071 l 84.766 83.071 l 84.73 83.075
 l 84.703 83.071 l 84.641 83.063 l 84.613 83.059 l 84.586 83.051 l 84.559
 83.039 l 84.527 83.028 l 84.48 82.996 l 84.473 82.985 l 84.457 82.977 l
 84.449 82.965 l 84.438 82.953 l 84.43 82.942 l 84.418 82.93 l 84.406 82.914
 l 84.398 82.903 l 84.387 82.887 l 84.383 82.868 l 84.371 82.852 l 84.367
 82.836 l 84.355 82.817 l 84.348 82.801 l 84.195 82.379 84.582 82.239 84.938
 82.114 c 97.52 77.598 l 97.879 77.469 98.258 77.336 98.406 77.758 c 98.559
 78.172 98.16 78.317 97.797 78.446 c h
85.258 82.942 m f*
30.883 34.543 m 30.621 29.493 l 30.609 29.184 30.602 29.133 30.699 29.024
 c 30.816 28.895 31.059 28.871 31.203 29 c 31.301 29.086 31.305 29.137 31.316
 29.414 c 31.598 34.496 l 36.68 34.239 l 36.957 34.223 37.004 34.219 37.102
 34.309 c 37.246 34.438 37.246 34.68 37.129 34.809 c 37.031 34.918 36.98
 34.918 36.676 34.938 c 31.637 35.203 l 31.91 40.446 l 31.898 40.485 31.883
 40.637 31.812 40.719 c 31.668 40.875 31.453 40.879 31.305 40.746 c 31.277
 40.719 31.223 40.672 31.195 40.571 c 31.18 40.536 30.992 36.532 30.914 
35.254 c 26.277 35.496 l 26.137 35.493 25.785 35.539 25.645 35.532 c 25.605
 35.52 25.504 35.528 25.41 35.442 c 25.266 35.309 25.238 35.09 25.383 34.934
 c 25.477 34.828 25.582 34.825 25.859 34.809 c h
30.883 34.543 m f*
106.605 102.719 m 100.082 109.223 l 99.684 109.618 99.625 109.688 99.355
 109.688 c 99.039 109.688 98.711 109.387 98.711 109.036 c 98.711 108.797
 98.77 108.731 99.133 108.379 c 105.668 101.809 l 99.133 95.243 l 98.77 
94.883 98.711 94.825 98.711 94.586 c 98.711 94.227 99.039 93.938 99.355 
93.938 c 99.625 93.938 99.684 94.004 100.082 94.391 c 106.582 100.895 l 
113.34 94.137 l 113.414 94.102 113.637 93.938 113.832 93.938 c 114.219 93.938
 114.488 94.227 114.488 94.586 c 114.488 94.661 114.488 94.789 114.383 94.953
 c 114.359 95.016 109.164 100.149 107.531 101.809 c 113.504 107.793 l 113.668
 107.985 114.16 108.403 114.324 108.602 c 114.359 108.672 114.488 108.797
 114.488 109.036 c 114.488 109.387 114.219 109.688 113.832 109.688 c 113.578
 109.688 113.445 109.551 113.086 109.2 c h
106.605 102.719 m f*
Q Q
showpage
%%Trailer
end restore
%%EOF
