%!PS-Adobe-3.0 EPSF-3.0
%%Creator: cairo 1.14.8 (http://cairographics.org)
%%CreationDate: Sun Feb 17 17:34:26 2019
%%Pages: 1
%%DocumentData: Clean7Bit
%%LanguageLevel: 2
%%BoundingBox: 0 -1 325 307
%%EndComments
%%BeginProlog
save
50 dict begin
/q { gsave } bind def
/Q { grestore } bind def
/cm { 6 array astore concat } bind def
/w { setlinewidth } bind def
/J { setlinecap } bind def
/j { setlinejoin } bind def
/M { setmiterlimit } bind def
/d { setdash } bind def
/m { moveto } bind def
/l { lineto } bind def
/c { curveto } bind def
/h { closepath } bind def
/re { exch dup neg 3 1 roll 5 3 roll moveto 0 rlineto
      0 exch rlineto 0 rlineto closepath } bind def
/S { stroke } bind def
/f { fill } bind def
/f* { eofill } bind def
/n { newpath } bind def
/W { clip } bind def
/W* { eoclip } bind def
/BT { } bind def
/ET { } bind def
/pdfmark where { pop globaldict /?pdfmark /exec load put }
    { globaldict begin /?pdfmark /pop load def /pdfmark
    /cleartomark load def end } ifelse
/BDC { mark 3 1 roll /BDC pdfmark } bind def
/EMC { mark /EMC pdfmark } bind def
/cairo_store_point { /cairo_point_y exch def /cairo_point_x exch def } def
/Tj { show currentpoint cairo_store_point } bind def
/TJ {
  {
    dup
    type /stringtype eq
    { show } { -0.001 mul 0 cairo_font_matrix dtransform rmoveto } ifelse
  } forall
  currentpoint cairo_store_point
} bind def
/cairo_selectfont { cairo_font_matrix aload pop pop pop 0 0 6 array astore
    cairo_font exch selectfont cairo_point_x cairo_point_y moveto } bind def
/Tf { pop /cairo_font exch def /cairo_font_matrix where
      { pop cairo_selectfont } if } bind def
/Td { matrix translate cairo_font_matrix matrix concatmatrix dup
      /cairo_font_matrix exch def dup 4 get exch 5 get cairo_store_point
      /cairo_font where { pop cairo_selectfont } if } bind def
/Tm { 2 copy 8 2 roll 6 array astore /cairo_font_matrix exch def
      cairo_store_point /cairo_font where { pop cairo_selectfont } if } bind def
/g { setgray } bind def
/rg { setrgbcolor } bind def
/d1 { setcachedevice } bind def
%%EndProlog
%%BeginSetup
%%EndSetup
%%Page: 1 1
%%BeginPageSetup
%%PageBoundingBox: 0 -1 325 307
%%EndPageSetup
q 0 -1 325 308 rectclip q
0.662745 0.847059 0.803922 rg
318.207 63.507 m 318.207 28.89 275.535 0.824 222.895 0.824 c 170.254 0.824
 127.582 28.89 127.582 63.507 c 127.582 98.129 170.254 126.191 222.895 126.191
 c 275.535 126.191 318.207 98.129 318.207 63.507 c h
318.207 63.507 m f*
0 g
1.65011 w
2 J
0 j
[] 0.0 d
4 M q 1 0 0 -1 0 306.616791 cm
318.207 243.109 m 318.207 277.727 275.535 305.793 222.895 305.793 c 170.254
 305.793 127.582 277.727 127.582 243.109 c 127.582 208.488 170.254 180.426
 222.895 180.426 c 275.535 180.426 318.207 208.488 318.207 243.109 c h
318.207 243.109 m S Q
0.529412 0.745098 0.694118 rg
286.203 63.175 m 286.203 43.226 258.957 27.054 225.352 27.054 c 191.746
 27.054 164.5 43.226 164.5 63.175 c 164.5 83.125 191.746 99.296 225.352 
99.296 c 258.957 99.296 286.203 83.125 286.203 63.175 c h
286.203 63.175 m f*
0.847059 0.929412 0.917647 rg
289.531 144.394 m 289.531 126.75 260.93 112.449 225.645 112.449 c 190.363
 112.449 161.758 126.75 161.758 144.394 c 161.758 162.035 190.363 176.336
 225.645 176.336 c 260.93 176.336 289.531 162.035 289.531 144.394 c h
289.531 144.394 m f*
0 g
1.899455 w
q 1 0 0 -1 0 306.616791 cm
289.531 162.223 m 289.531 179.867 260.93 194.168 225.645 194.168 c 190.363
 194.168 161.758 179.867 161.758 162.223 c 161.758 144.582 190.363 130.281
 225.645 130.281 c 260.93 130.281 289.531 144.582 289.531 162.223 c h
289.531 162.223 m S Q
0.847059 0.929412 0.917647 rg
161.559 144.214 m 162.988 84.386 182.02 54.449 222.996 52.566 c 266.277
 50.574 290.574 88.066 289.496 147.027 c f
0 g
1 J
1 j
q 1 0 0 -1 0 306.616791 cm
161.559 162.402 m 162.988 222.23 182.02 252.168 222.996 254.051 c 266.277
 256.043 290.574 218.551 289.496 159.59 c S Q
0.847059 0.929412 0.917647 rg
275.172 79.851 m 338.75 83.453 331.199 149.039 287.883 119.312 c 289.406
 134.808 l 310.723 148.433 334.207 129.507 318.918 102.273 c 307.574 83.097
 284.527 80.281 275.172 79.851 c h
275.172 79.851 m f
0 g
q 1 0 0 -1 0 306.616791 cm
275.172 226.766 m 338.75 223.164 331.199 157.578 287.883 187.305 c 289.406
 171.809 l 310.723 158.184 334.207 177.109 318.918 204.344 c 307.574 223.52
 284.527 226.336 275.172 226.766 c h
275.172 226.766 m S Q
0.752941 0.886275 0.866667 rg
282.289 94.086 m 302.965 97.89 317.371 110.316 317.672 122.8 c 331.824 
109.89 308.637 78.039 274.883 80.129 c h
282.289 94.086 m f
0 g
q 1 0 0 -1 0 306.616791 cm
282.289 212.531 m 302.965 208.727 317.371 196.301 317.672 183.816 c 331.824
 196.727 308.637 228.578 274.883 226.488 c h
282.289 212.531 m S Q
0.196078 0.0980392 0 rg
283.32 141.168 m 283.32 128.125 257.379 117.554 225.383 117.554 c 193.387
 117.554 167.445 128.125 167.445 141.168 c 167.445 154.207 192.355 168.55
 224.355 168.55 c 256.352 168.55 283.32 154.207 283.32 141.168 c h
283.32 141.168 m f*
0 g
2 J
0 j
q 1 0 0 -1 0 306.616791 cm
289.531 162.223 m 289.531 179.867 260.93 194.168 225.645 194.168 c 190.363
 194.168 161.758 179.867 161.758 162.223 c 161.758 144.582 190.363 130.281
 225.645 130.281 c 260.93 130.281 289.531 144.582 289.531 162.223 c h
289.531 162.223 m S Q
0.909804 0.85098 0.768627 rg
261.41 306.617 m 261.41 306.617 228.695 287.144 243.492 251.312 c 258.293
 215.48 231.809 185.882 231.809 185.882 c 231.809 185.882 254.496 199.351
 262.969 248.976 c 268.418 280.914 256.734 280.914 261.41 306.617 c h
261.41 306.617 m f
0.929412 0.866667 0.784314 rg
218.977 219.222 m 218.977 219.222 209.062 188.375 223.383 177.359 c 237.703
 166.343 237.703 166.343 237.703 166.343 c 172.707 178.461 218.977 219.222
 218.977 219.222 c h
218.977 219.222 m f
0.239216 0.14902 0.0588235 rg
281.34 135.336 m 274.723 123.867 250.574 118.066 225.383 117.554 c 210.211
 117.246 175.543 121.832 168.516 136.867 c 168.516 149.238 200.035 162.351
 225.383 162.351 c 250.73 162.351 281.34 147.707 281.34 135.336 c h
281.34 135.336 m f*
0.921569 0.733333 0.458824 rg
130.961 105.109 m 138.375 99.488 143.934 92.179 146.84 83.445 c 156.668
 53.918 132.465 19.277 92.781 6.07 c 53.098 -7.137 12.965 6.093 3.137 35.621
 c 0.598 43.254 0.332 51.23 2.02 59.086 c 52.562 38.871 105.402 7.882 130.961
 105.109 c h
130.961 105.109 m f*
0 g
q 1 0 0 -1 0 306.616791 cm
130.961 201.508 m 138.375 207.129 143.934 214.438 146.84 223.172 c 156.668
 252.699 132.465 287.34 92.781 300.547 c 53.098 313.754 12.965 300.523 3.137
 270.996 c 0.598 263.363 0.332 255.387 2.02 247.531 c 52.562 267.746 105.402
 298.734 130.961 201.508 c h
130.961 201.508 m S Q
0.980392 0.32549 0.592157 rg
88.164 118.113 m 78.184 118.129 67.676 116.484 57.195 112.996 c 27.773 
103.203 6.859 81.629 2.039 59.242 c 2.922 45.093 12.527 40.089 19.73 33.523
 c 24.164 29.308 21.863 11.691 28.305 12.027 c 35.922 12.425 24.328 29.211
 30.629 25.566 c 38.723 20.918 47.762 18.148 57.332 17.105 c 61.145 17.211
 62.188 7.742 68.098 7.914 c 72.684 8.046 70.824 16.453 74.312 17.011 c 
81.852 17.722 86.441 20.75 95.254 30.421 c 101.555 32.726 108.797 8.004 
111.891 23.242 c 113.355 30.461 124.184 22.855 120.719 35.683 c 116.996 
45.179 136.613 55.3 138.125 69.523 c 138.258 72.882 139.648 61.558 144.523
 63.992 c 149.398 66.421 139.723 78.418 139.59 84.914 c 141.426 95.726 136.137
 100.714 131.051 105.066 c 119.961 113.453 104.801 118.089 88.164 118.113
 c h
90.27 67.707 m 92.766 67.683 95.215 67.496 97.566 67.168 c 85.711 48.957
 57.852 50.968 53.141 52.382 c 61.934 63.402 76.797 67.851 90.27 67.707 
c h
90.27 67.707 m f
0 g
1.899022 w
1 J
1 j
q 1 0 0 -1 0 306.616791 cm
88.164 188.504 m 78.184 188.488 67.676 190.133 57.195 193.621 c 27.773 
203.414 6.859 224.988 2.039 247.375 c 2.922 261.523 12.527 266.527 19.73
 273.094 c 24.164 277.309 21.863 294.926 28.305 294.59 c 35.922 294.191 
24.328 277.406 30.629 281.051 c 38.723 285.699 47.762 288.469 57.332 289.512
 c 61.145 289.406 62.188 298.875 68.098 298.703 c 72.684 298.57 70.824 290.164
 74.312 289.605 c 81.852 288.895 86.441 285.867 95.254 276.195 c 101.555
 273.891 108.797 298.613 111.891 283.375 c 113.355 276.156 124.184 283.762
 120.719 270.934 c 116.996 261.438 136.613 251.316 138.125 237.094 c 138.258
 233.734 139.648 245.059 144.523 242.625 c 149.398 240.195 139.723 228.199
 139.59 221.703 c 141.426 210.891 136.137 205.902 131.051 201.551 c 119.961
 193.164 104.801 188.527 88.164 188.504 c h
90.27 238.91 m 92.766 238.934 95.215 239.121 97.566 239.449 c 85.711 257.66
 57.852 255.648 53.141 254.234 c 61.934 243.215 76.797 238.766 90.27 238.91
 c h
90.27 238.91 m S Q
0.890196 0.623529 0.235294 rg
52.938 64.504 m 55.113 66.296 55.703 58.925 59.758 61.629 c 62.121 63.203
 57.555 68.16 59.633 69.492 c 62.746 71.277 66.723 73.054 71.793 74.726 
c 72.594 74.988 73.375 75.23 74.133 75.445 c 76.68 76.031 77.438 70.711 
79.66 70.754 c 82.5 70.804 80.758 77.078 83.961 77.16 c 94.25 79.089 101.082
 72.589 97.648 67.257 c 67.918 71.429 52.781 52.652 53.164 52.41 c 46.336
 54.082 48.57 61.804 52.938 64.504 c h
52.938 64.504 m f
0 g
q 1 0 0 -1 0 306.616791 cm
52.938 242.113 m 55.113 240.32 55.703 247.691 59.758 244.988 c 62.121 243.414
 57.555 238.457 59.633 237.125 c 62.746 235.34 66.723 233.562 71.793 231.891
 c 72.594 231.629 73.375 231.387 74.133 231.172 c 76.68 230.586 77.438 235.906
 79.66 235.863 c 82.5 235.812 80.758 229.539 83.961 229.457 c 94.25 227.527
 101.082 234.027 97.648 239.359 c 67.918 235.188 52.781 253.965 53.164 254.207
 c 46.336 252.535 48.57 244.812 52.938 242.113 c h
52.938 242.113 m S Q
1 0.545098 0.729412 rg
28.555 51.316 m 25.113 52.347 19.586 83.058 62.953 98.656 c 76.898 103.671
 101.32 103.25 112.625 91.984 c 110.715 98.523 91.664 109.742 63.641 104.621
 c 23.078 97.207 9.426 59.668 28.555 51.316 c h
28.555 51.316 m f
0 g
66.477 107.914 m 66.305 107.89 l 66.223 107.879 l 66.145 107.875 l 66.07
 107.871 l 65.996 107.863 l 65.93 107.867 l 65.867 107.871 l 65.805 107.879
 l 65.746 107.886 l 65.688 107.906 l 65.633 107.925 l 65.586 107.953 l 65.531
 107.98 l 65.488 108.019 l 65.398 108.109 l 65.355 108.168 l 65.344 108.199
 l 65.32 108.234 l 65.301 108.265 l 65.285 108.3 l 65.266 108.343 l 65.246
 108.382 l 65.227 108.425 l 65.211 108.468 l 65.199 108.515 l 65.18 108.562
 l 65.148 108.671 l 65.133 108.722 l 65.117 108.781 l 65.105 108.847 l 65.09
 108.906 l 65.07 108.976 l 65.062 109.039 l 65.047 109.109 l 65.031 109.187
 l 65.016 109.261 l 65.004 109.343 l 64.988 109.425 l 64.977 109.507 l 64.965
 109.593 l 64.945 109.683 l 64.934 109.777 l 64.918 109.875 l 64.832 110.527
 l 63.992 110.414 l 66.508 91.89 l 67.348 92.004 l 67.258 92.656 l 66.977
 94.742 67.266 94.843 68.234 94.972 c 82.449 96.906 l 83.43 97.039 83.73
 97.019 84.016 94.933 c 84.105 94.281 l 84.949 94.394 l 84.73 95.336 84.457
 97.343 84.32 98.371 c 84.18 99.402 83.902 101.433 83.859 102.398 c 83.016
 102.281 l 83.105 101.629 l 83.391 99.543 83.102 99.445 82.125 99.312 c 
66.641 97.207 l 65.539 105.324 l 81.02 107.429 l 82 107.562 82.301 107.543
 82.586 105.457 c 82.676 104.804 l 83.52 104.918 l 83.301 105.859 83.027
 107.867 82.891 108.894 c 82.75 109.925 82.473 111.957 82.43 112.918 c 81.586
 112.804 l 81.676 112.152 l 81.961 110.066 81.672 109.976 80.691 109.843
 c h
66.477 107.914 m f*
87.715 30.457 m 87.789 30.472 l 87.863 30.484 l 87.934 30.5 l 88.004 30.507
 l 88.07 30.515 l 88.133 30.523 l 88.191 30.527 l 88.246 30.527 l 88.355
 30.519 l 88.406 30.507 l 88.453 30.492 l 88.5 30.468 l 88.547 30.449 l 
88.586 30.418 l 88.629 30.382 l 88.672 30.343 l 88.711 30.296 l 88.727 30.269
 l 88.746 30.238 l 88.766 30.214 l 88.781 30.183 l 88.82 30.113 l 88.84 
30.074 l 88.855 30.039 l 88.867 29.996 l 88.887 29.957 l 88.906 29.91 l 
88.918 29.867 l 88.938 29.82 l 88.953 29.769 l 88.984 29.66 l 89.008 29.601
 l 89.02 29.546 l 89.035 29.484 l 89.055 29.418 l 89.07 29.355 l 89.086 
29.281 l 89.105 29.214 l 89.121 29.14 l 89.133 29.066 l 89.156 28.988 l 
89.172 28.906 l 89.188 28.82 l 89.301 28.254 l 90.031 28.398 l 86.801 44.511
 l 86.07 44.363 l 86.184 43.796 l 86.547 41.984 86.297 41.879 85.457 41.711
 c 73.094 39.23 l 72.242 39.058 71.977 39.058 71.609 40.875 c 71.496 41.441
 l 70.762 41.293 l 71.004 40.48 71.355 38.734 71.535 37.839 c 71.715 36.945
 72.07 35.179 72.16 34.336 c 72.895 34.48 l 72.777 35.05 l 72.414 36.863
 72.66 36.964 73.512 37.136 c 86.977 39.839 l 88.395 32.777 l 74.93 30.078
 l 74.078 29.906 73.812 29.906 73.445 31.722 c 73.332 32.289 l 72.598 32.14
 l 72.84 31.328 73.191 29.582 73.371 28.687 c 73.551 27.793 73.906 26.027
 73.996 25.183 c 74.73 25.328 l 74.613 25.898 l 74.25 27.711 74.5 27.804
 75.352 27.976 c h
87.715 30.457 m f*
27.516 71.707 m 27.562 71.769 l 27.609 71.828 l 27.652 71.886 l 27.695 
71.937 l 27.738 71.984 l 27.777 72.031 l 27.82 72.07 l 27.859 72.109 l 27.902
 72.14 l 27.945 72.175 l 27.992 72.199 l 28.035 72.218 l 28.082 72.23 l 
28.129 72.246 l 28.18 72.25 l 28.234 72.254 l 28.293 72.25 l 28.352 72.242
 l 28.379 72.23 l 28.414 72.222 l 28.445 72.218 l 28.477 72.207 l 28.512
 72.191 l 28.551 72.179 l 28.586 72.164 l 28.625 72.148 l 28.66 72.125 l
 28.699 72.109 l 28.785 72.062 l 28.828 72.043 l 28.871 72.015 l 28.922 
71.984 l 28.965 71.957 l 29.02 71.925 l 29.066 71.894 l 29.117 71.859 l 
29.227 71.789 l 29.285 71.746 l 29.344 71.707 l 29.402 71.664 l 29.461 71.617
 l 29.527 71.574 l 29.594 71.527 l 29.66 71.476 l 30.113 71.132 l 30.551
 71.714 l 17.691 81.386 l 17.254 80.804 l 17.707 80.464 l 19.156 79.375 
19.039 79.136 18.535 78.464 c 11.113 68.597 l 10.602 67.918 10.406 67.742
 8.957 68.832 c 8.504 69.171 l 8.066 68.586 l 8.773 68.148 10.168 67.101
 10.879 66.566 c 11.594 66.027 13.004 64.968 13.621 64.41 c 14.062 64.996
 l 13.605 65.336 l 12.16 66.425 12.273 66.66 12.785 67.339 c 20.867 78.089
 l 26.5 73.851 l 18.418 63.101 l 17.906 62.421 17.711 62.25 16.266 63.339
 c 15.812 63.679 l 15.371 63.093 l 16.078 62.656 17.473 61.609 18.188 61.07
 c 18.898 60.535 20.309 59.472 20.926 58.914 c 21.367 59.5 l 20.914 59.843
 l 19.465 60.929 19.586 61.16 20.098 61.839 c h
27.516 71.707 m f*
25.969 51.39 m 25.992 51.382 l 26.012 51.375 l 26.027 51.367 l 26.047 51.359
 l 26.07 51.355 l 26.09 51.347 l 26.105 51.343 l 26.121 51.336 l 26.141 
51.328 l 26.156 51.328 l 26.191 51.32 l 26.215 51.308 l 26.246 51.304 l 
26.273 51.293 l 26.301 51.285 l 26.324 51.281 l 26.348 51.281 l 26.371 51.277
 l 26.395 51.277 l 26.41 51.269 l 26.465 51.269 l 26.477 51.273 l 26.492
 51.273 l 26.508 51.269 l 26.516 51.273 l 26.527 51.277 l 26.543 51.277 
l 26.551 51.281 l 26.555 51.281 l 26.57 51.285 l 26.574 51.289 l 26.582 
51.293 l 26.59 51.293 l 26.594 51.296 l 26.602 51.3 l 26.766 51.363 26.875
 51.554 26.969 51.699 c 33.973 62.082 l 36.887 54.605 l 39.02 49.129 38.488
 47.05 33.633 44.371 c 33.945 43.57 l 40.887 47.32 l 33.879 65.296 l 33.578
 66.07 33.555 66.129 32.801 65.836 c 24.219 53.203 l 12.434 57.492 l 11.957
 57.679 11.891 57.656 11.793 57.617 c 11.438 57.476 11.562 57.152 11.75 
56.671 c 18.762 38.691 l 26.758 40.769 l 26.449 41.57 l 20.809 40.05 19.07
 41.914 17.09 46.992 c 13.605 55.933 l h
25.969 51.39 m f*
120.199 74.543 m 120.176 74.554 l 120.133 74.597 l 120.109 74.609 l 120.098
 74.621 l 120.082 74.629 l 120.066 74.64 l 120.051 74.656 l 120.039 74.66
 l 120.008 74.679 l 119.988 74.699 l 119.957 74.714 l 119.938 74.734 l 119.891
 74.757 l 119.871 74.765 l 119.848 74.777 l 119.828 74.785 l 119.812 74.796
 l 119.797 74.804 l 119.777 74.808 l 119.762 74.816 l 119.75 74.816 l 119.734
 74.82 l 119.719 74.828 l 119.699 74.828 l 119.684 74.832 l 119.621 74.832
 l 119.445 74.82 119.277 74.671 119.145 74.566 c 109.172 66.886 l 108.766
 74.941 l 108.465 80.839 109.633 82.656 115.117 83.671 c 115.07 84.531 l
 107.262 83.16 l 108.238 63.789 l 108.281 62.957 108.285 62.894 109.098 
62.933 c 121.289 72.257 l 131.168 64.429 l 131.562 64.097 131.633 64.101
 131.738 64.105 c 132.125 64.125 132.105 64.476 132.078 64.992 c 131.102
 84.367 l 122.812 84.921 l 122.855 84.062 l 128.719 83.718 129.785 81.39
 130.059 75.918 c 130.547 66.285 l h
120.199 74.543 m f*
49.141 86.621 m 49.109 86.316 l 49.086 86.004 l 49.02 85.367 l 48.953 84.714
 l 48.875 84.054 l 48.797 83.39 l 48.723 82.734 l 48.605 81.773 l 48.57 
81.468 l 48.531 81.168 l 48.5 80.871 l 48.465 80.589 l 48.438 80.316 l 48.41
 80.05 l 48.379 79.796 l 48.359 79.562 l 48.336 79.336 l 48.316 79.125 l
 48.301 78.925 l 48.289 78.75 l 48.285 78.586 l 48.277 78.441 l 48.281 78.312
 l 48.285 78.211 l 48.297 78.129 l 48.422 77.367 48.68 77.238 49.371 76.898
 c 49.93 76.625 l 50.199 76.523 50.301 76.664 50.336 76.742 c 50.371 76.812
 50.348 76.894 50.324 77.039 c 50.211 77.441 50.238 77.898 50.316 78.496
 c 52.254 95.574 l 52.441 97.32 51.227 98.339 50.031 98.925 c 49.906 98.988
 49.57 99.152 49.434 98.871 c 49.328 98.66 49.512 98.515 49.539 98.5 c 50.301
 97.933 50.402 97.699 50.188 95.648 c 49.25 87.488 l 38.762 83.957 l 38.312
 83.804 38.078 83.718 37.918 83.39 c 37.703 82.957 37.914 82.476 38.324 
82.277 c 38.734 82.074 39.094 82.25 39.43 82.402 c h
49.141 86.621 m f*
41.219 65.726 m 40.902 66.043 l 40.578 66.371 l 40.242 66.711 l 39.578 
67.406 l 39.246 67.75 l 38.926 68.089 l 38.762 68.254 l 38.609 68.418 l 
38.461 68.574 l 38.309 68.73 l 38.168 68.879 l 38.027 69.019 l 37.895 69.16
 l 37.766 69.289 l 37.645 69.414 l 37.527 69.527 l 37.418 69.636 l 37.316
 69.734 l 37.223 69.824 l 37.133 69.902 l 37.055 69.972 l 36.984 70.031 
l 36.922 70.074 l 36.871 70.105 l 36.387 70.386 36.199 70.3 35.691 70.07
 c 35.281 69.886 l 35.102 69.785 35.137 69.66 35.16 69.605 c 35.184 69.554
 35.242 69.527 35.332 69.476 c 35.609 69.355 35.852 69.129 36.148 68.812
 c 44.781 59.871 l 45.668 58.961 46.793 59.171 47.672 59.566 c 47.766 59.609
 48.012 59.718 47.918 59.925 c 47.848 60.082 47.68 60.046 47.664 60.039 
c 46.996 59.875 46.816 59.925 45.773 60.988 c 41.656 65.265 l 44.512 72.742
 l 44.633 73.062 44.691 73.23 44.582 73.472 c 44.438 73.789 44.074 73.894
 43.773 73.757 c 43.473 73.621 43.406 73.343 43.336 73.086 c h
41.219 65.726 m f*
108.09 40.89 m 108.418 41.043 l 108.754 41.203 l 109.445 41.515 l 110.156
 41.836 l 110.883 42.148 l 111.609 42.464 l 112.328 42.777 l 113.035 43.078
 l 113.383 43.23 l 113.719 43.379 l 114.051 43.515 l 114.371 43.66 l 114.684
 43.789 l 114.98 43.925 l 115.27 44.054 l 115.547 44.175 l 115.801 44.296
 l 116.047 44.406 l 116.277 44.511 l 116.488 44.613 l 116.676 44.707 l 116.848
 44.8 l 117 44.879 l 117.129 44.957 l 117.234 45.023 l 117.312 45.086 l 
118.02 45.671 117.996 46.007 117.934 46.921 c 117.883 47.656 l 117.824 47.992
 117.617 48.011 117.516 48.007 c 117.422 48 117.352 47.925 117.219 47.816
 c 116.875 47.461 116.391 47.214 115.73 46.937 c 97.043 38.754 l 95.137 
37.91 94.816 36.054 94.926 34.476 c 94.938 34.308 94.965 33.871 95.336 33.894
 c 95.613 33.914 95.656 34.187 95.656 34.222 c 95.781 35.343 95.961 35.589
 98.195 36.589 c 107.133 40.484 l 117.008 31.824 l 117.434 31.453 117.656
 31.265 118.09 31.293 c 118.664 31.336 119.031 31.836 118.992 32.375 c 118.957
 32.918 118.562 33.183 118.207 33.437 c h
108.09 40.89 m f*
89.812 56.015 m 89.77 55.98 l 89.738 55.949 l 89.703 55.921 l 89.676 55.89
 l 89.566 55.781 l 89.543 55.746 l 89.504 55.699 l 89.488 55.671 l 89.473
 55.648 l 89.461 55.625 l 89.445 55.597 l 89.438 55.578 l 89.426 55.554 
l 89.422 55.531 l 89.414 55.511 l 89.41 55.492 l 89.406 55.468 l 89.402 
55.449 l 89.406 55.429 l 89.402 55.41 l 89.402 55.394 l 89.41 55.379 l 89.41
 55.363 l 89.418 55.347 l 89.422 55.336 l 89.426 55.32 l 89.438 55.304 l
 89.449 55.296 l 89.508 55.222 89.715 55.109 90.152 55.441 c 91.734 56.601
 93.645 56.023 94.613 54.836 c 95.516 53.73 95.594 52.328 95.641 50.769 
c 95.66 49.168 95.703 47.586 96.703 46.359 c 98.172 44.558 100.82 44.605
 102.543 46.011 c 103.094 46.461 102.914 46.722 102.902 46.738 c 102.738
 46.937 102.324 46.695 102.262 46.648 c 100.395 45.277 98.535 46.203 97.727
 47.195 c 96.832 48.296 96.758 49.703 96.711 51.254 c 96.688 52.851 96.652
 54.441 95.645 55.675 c 94.184 57.468 91.531 57.418 89.812 56.015 c h
89.812 56.015 m f*
105.785 49.761 m 105.879 49.644 l 105.926 49.593 l 105.953 49.562 l 105.98
 49.539 l 106 49.511 l 106.051 49.461 l 106.082 49.437 l 106.109 49.418 
l 106.133 49.394 l 106.16 49.375 l 106.191 49.355 l 106.219 49.339 l 106.25
 49.328 l 106.277 49.316 l 106.305 49.3 l 106.336 49.296 l 106.367 49.289
 l 106.398 49.285 l 106.461 49.285 l 106.473 49.293 l 106.492 49.293 l 106.504
 49.296 l 106.523 49.3 l 106.535 49.304 l 106.555 49.312 l 106.586 49.328
 l 106.605 49.336 l 106.617 49.347 l 106.637 49.355 l 106.652 49.367 l 106.672
 49.379 l 106.688 49.39 l 107.055 49.691 106.781 50.027 106.531 50.336 c
 97.594 61.293 l 97.34 61.605 97.07 61.933 96.703 61.632 c 96.344 61.339
 96.625 60.992 96.883 60.675 c h
105.785 49.761 m f*
61.855 35.894 m 61.867 35.957 l 61.871 36.015 l 61.879 36.066 l 61.883 
36.121 l 61.887 36.171 l 61.891 36.218 l 61.891 36.398 l 61.887 36.433 l
 61.879 36.468 l 61.875 36.507 l 61.867 36.535 l 61.863 36.574 l 61.848 
36.597 l 61.844 36.629 l 61.828 36.656 l 61.82 36.679 l 61.809 36.699 l 
61.793 36.726 l 61.781 36.746 l 61.766 36.761 l 61.75 36.781 l 61.734 36.796
 l 61.719 36.804 l 61.703 36.82 l 61.656 36.843 l 61.633 36.851 l 61.617
 36.851 l 61.5 36.871 61.219 36.808 61.082 36.156 c 60.547 33.808 58.316
 32.82 56.465 33.144 c 54.746 33.445 53.551 34.675 52.262 36.082 c 50.961
 37.55 49.652 38.98 47.746 39.312 c 44.945 39.804 42.531 37.64 42.062 34.961
 c 41.914 34.105 42.285 34.007 42.312 34 c 42.621 33.945 42.816 34.504 42.832
 34.593 c 43.465 37.359 45.926 37.992 47.465 37.722 c 49.18 37.421 50.371
 36.179 51.656 34.777 c 52.957 33.316 54.266 31.875 56.184 31.539 c 58.973
 31.05 61.387 33.218 61.855 35.894 c h
61.855 35.894 m f*
42.062 28.894 m 41.977 28.91 l 41.883 28.925 l 41.797 28.937 l 41.75 28.945
 l 41.703 28.945 l 41.664 28.953 l 41.617 28.957 l 41.578 28.957 l 41.531
 28.961 l 41.488 28.957 l 41.445 28.957 l 41.406 28.953 l 41.363 28.949 
l 41.324 28.937 l 41.289 28.925 l 41.25 28.914 l 41.215 28.902 l 41.18 28.886
 l 41.148 28.867 l 41.113 28.843 l 41.086 28.82 l 41.059 28.793 l 41.051
 28.777 l 41.035 28.761 l 41.027 28.746 l 41.012 28.73 l 41.004 28.714 l
 40.992 28.695 l 40.984 28.671 l 40.965 28.632 l 40.961 28.609 l 40.953 
28.589 l 40.945 28.566 l 40.938 28.539 l 40.934 28.515 l 40.832 27.941 41.352
 27.851 41.836 27.765 c 58.879 24.777 l 59.367 24.691 59.875 24.601 59.977
 25.175 c 60.074 25.738 59.535 25.832 59.043 25.918 c h
42.062 28.894 m f*
101.246 85.671 m 101.262 85.718 l 101.273 85.761 l 101.289 85.8 l 101.305
 85.879 l 101.32 85.949 l 101.328 85.98 l 101.332 86.019 l 101.34 86.05 
l 101.34 86.187 l 101.332 86.211 l 101.332 86.234 l 101.324 86.254 l 101.324
 86.273 l 101.301 86.332 l 101.293 86.343 l 101.281 86.363 l 101.273 86.375
 l 101.262 86.382 l 101.254 86.394 l 101.242 86.406 l 101.219 86.421 l 101.203
 86.429 l 101.188 86.433 l 101.105 86.464 100.883 86.453 100.691 85.972 
c 99.977 84.257 98.148 83.796 96.781 84.285 c 95.512 84.742 94.766 85.836
 93.969 87.074 c 93.168 88.363 92.359 89.621 90.953 90.129 c 88.883 90.871
 86.766 89.539 86.055 87.558 c 85.828 86.929 86.098 86.804 86.121 86.796
 c 86.348 86.714 86.566 87.113 86.59 87.179 c 87.438 89.203 89.395 89.359
 90.531 88.953 c 91.797 88.5 92.539 87.394 93.336 86.16 c 94.133 84.875 
94.941 83.609 96.355 83.101 c 98.418 82.363 100.539 83.699 101.246 85.671
 c h
101.246 85.671 m f*
85.258 82.941 m 85.195 82.964 l 85.125 82.988 l 85.062 83.007 l 85.027 
83.019 l 84.992 83.027 l 84.965 83.039 l 84.926 83.046 l 84.898 83.05 l 
84.859 83.062 l 84.828 83.062 l 84.797 83.07 l 84.766 83.07 l 84.73 83.074
 l 84.703 83.07 l 84.641 83.062 l 84.613 83.058 l 84.586 83.05 l 84.559 
83.039 l 84.527 83.027 l 84.504 83.011 l 84.492 83.007 l 84.48 82.996 l 
84.473 82.984 l 84.457 82.976 l 84.449 82.964 l 84.438 82.957 l 84.43 82.945
 l 84.406 82.914 l 84.398 82.902 l 84.387 82.886 l 84.383 82.871 l 84.371
 82.855 l 84.367 82.836 l 84.355 82.816 l 84.348 82.8 l 84.195 82.379 84.582
 82.238 84.938 82.113 c 97.52 77.597 l 97.879 77.468 98.258 77.336 98.406
 77.757 c 98.559 78.171 98.16 78.316 97.797 78.445 c h
85.258 82.941 m f*
30.883 34.543 m 30.621 29.492 l 30.609 29.183 30.602 29.132 30.699 29.023
 c 30.816 28.894 31.059 28.871 31.203 29 c 31.301 29.089 31.305 29.136 31.316
 29.414 c 31.598 34.496 l 36.68 34.238 l 36.957 34.222 37.004 34.222 37.102
 34.308 c 37.246 34.441 37.246 34.679 37.129 34.808 c 37.031 34.918 36.98
 34.918 36.676 34.937 c 31.637 35.203 l 31.91 40.445 l 31.898 40.488 31.883
 40.636 31.812 40.718 c 31.668 40.875 31.453 40.879 31.305 40.746 c 31.277
 40.722 31.223 40.671 31.195 40.57 c 31.18 40.539 30.992 36.531 30.914 35.254
 c 26.277 35.496 l 26.137 35.492 25.785 35.539 25.645 35.535 c 25.605 35.519
 25.504 35.527 25.41 35.441 c 25.266 35.312 25.238 35.089 25.383 34.933 
c 25.477 34.828 25.582 34.824 25.859 34.808 c h
30.883 34.543 m f*
106.605 102.718 m 100.082 109.222 l 99.684 109.617 99.625 109.691 99.355
 109.691 c 99.039 109.691 98.711 109.386 98.711 109.035 c 98.711 108.796
 98.77 108.734 99.133 108.379 c 105.668 101.808 l 99.133 95.246 l 98.77 
94.882 98.711 94.824 98.711 94.589 c 98.711 94.226 99.039 93.937 99.355 
93.937 c 99.625 93.937 99.684 94.004 100.082 94.39 c 106.582 100.898 l 113.34
 94.136 l 113.414 94.101 113.637 93.937 113.832 93.937 c 114.219 93.937 
114.488 94.226 114.488 94.589 c 114.488 94.66 114.488 94.793 114.383 94.957
 c 114.359 95.015 109.164 100.148 107.531 101.808 c 113.504 107.796 l 113.668
 107.984 114.16 108.406 114.324 108.601 c 114.359 108.671 114.488 108.796
 114.488 109.035 c 114.488 109.386 114.219 109.691 113.832 109.691 c 113.578
 109.691 113.445 109.55 113.086 109.199 c h
106.605 102.718 m f*
Q Q
showpage
%%Trailer
end restore
%%EOF
